…
Next we investigate which countries experienced a drop in life
expectancy over the years.

``` r
gapminder %>% 
  group_by(country) %>% 
  mutate(lifeExp_change = lifeExp - lag(lifeExp, 1, order_by = year)) %>% 
  filter(lifeExp_change < 0)
```

    ## # A tibble: 102 x 7
    ## # Groups:   country [52]
    ##    country  continent  year lifeExp     pop gdpPercap lifeExp_change
    ##    <fct>    <fct>     <int>   <dbl>   <int>     <dbl>          <dbl>
    ##  1 Albania  Europe     1992    71.6 3326498     2497.         -0.419
    ##  2 Angola   Africa     1987    39.9 7874230     2430.         -0.036
    ##  3 Benin    Africa     2002    54.4 7026113     1373.         -0.371
    ##  4 Botswana Africa     1992    62.7 1342614     7954.         -0.877
    ##  5 Botswana Africa     1997    52.6 1536536     8647.        -10.2  
    ##  6 Botswana Africa     2002    46.6 1630347    11004.         -5.92 
    ##  7 Bulgaria Europe     1977    70.8 8797022     7612.         -0.09 
    ##  8 Bulgaria Europe     1992    71.2 8658506     6303.         -0.15 
    ##  9 Bulgaria Europe     1997    70.3 8066057     5970.         -0.87 
    ## 10 Burundi  Africa     1992    44.7 5809236      632.         -3.48 
    ## # ... with 92 more rows
…
Only for Swaziland and Zimbabwe life expectancy decreased between the
first and last observation period.

Next we show the maximum GDP per capita experienced by each country and
the year in which this was observed.

``` r
gapminder %>% 
  group_by(country) %>% 
  filter(gdpPercap == max(gdpPercap)) %>% 
  select(country, year, gdpPercap)
```

    ## # A tibble: 142 x 3
    ## # Groups:   country [142]
    ##    country      year gdpPercap
    ##    <fct>       <int>     <dbl>
    ##  1 Afghanistan  1982      978.
    ##  2 Albania      2007     5937.
    ##  3 Algeria      2007     6223.
    ##  4 Angola       1967     5523.
    ##  5 Argentina    2007    12779.
    ##  6 Australia    2007    34435.
    ##  7 Austria      2007    36126.
    ##  8 Bahrain      2007    29796.
    ##  9 Bangladesh   2007     1391.
    ## 10 Belgium      2007    33693.
    ## # ... with 132 more rows
…
# Continent

Now we move our focus to the variable continent. To indicate which
values the variable can take we provide a snapshot of the variable and
its frequency.

``` r
gapminder %>% 
  select(continent, year) %>% 
  group_by(year) %>% 
  count(continent)
```

    ## # A tibble: 60 x 3
    ## # Groups:   year [12]
    ##     year continent     n
    ##    <int> <fct>     <int>
    ##  1  1952 Africa       52
    ##  2  1952 Americas     25
    ##  3  1952 Asia         33
    ##  4  1952 Europe       30
    ##  5  1952 Oceania       2
    ##  6  1957 Africa       52
    ##  7  1957 Americas     25
    ##  8  1957 Asia         33
    ##  9  1957 Europe       30
    ## 10  1957 Oceania       2
    ## # ... with 50 more rows
…
When running this command we do not obtain all observations we expected,
it seems like even years get assigned to Rwanda while odd years to
Afghanistan. To perform the query properly, we can modify the statement
in this way

``` r
filter(gapminder, country %in% c("Rwanda", "Afghanistan"))
```

    ## # A tibble: 24 x 6
    ##    country     continent  year lifeExp      pop gdpPercap
    ##    <fct>       <fct>     <int>   <dbl>    <int>     <dbl>
    ##  1 Afghanistan Asia       1952    28.8  8425333      779.
    ##  2 Afghanistan Asia       1957    30.3  9240934      821.
    ##  3 Afghanistan Asia       1962    32.0 10267083      853.
    ##  4 Afghanistan Asia       1967    34.0 11537966      836.
    ##  5 Afghanistan Asia       1972    36.1 13079460      740.
    ##  6 Afghanistan Asia       1977    38.4 14880372      786.
    ##  7 Afghanistan Asia       1982    39.9 12881816      978.
    ##  8 Afghanistan Asia       1987    40.8 13867957      852.
    ##  9 Afghanistan Asia       1992    41.7 16317921      649.
    ## 10 Afghanistan Asia       1997    41.8 22227415      635.
    ## # ... with 14 more rows
…
